// Jest Snapshot v1, https://goo.gl/fbAQLP

exports[`should recursively traverse and concatenate the results 1`] = `
Object {
  "assets": Array [
    "test.css",
    "test-deep.css",
  ],
  "links": Array [
    "test.com",
    "test-deep.com",
  ],
}
`;

exports[`should traverse first level 1`] = `
Object {
  "assets": Array [
    "test.css",
  ],
  "links": Array [
    "test.com",
  ],
}
`;
